FE/Vfe_top.vcd
$version Generated by VerilatedVcd $end
$date Sun May 12 14:00:37 2019
 $end
$timescale   1ns $end

 $scope module TOP $end
  $var wire  1 u clk_i $end
  $var wire 57 x final_decoded_instruction [56:0] $end
  $var wire  1 w ready_i $end
  $var wire  1 v reset_i $end
  $var wire  1 z valid_o $end
  $scope module $unit $end
   $var wire 32 "2 BRANCH_CC_NUM [31:0] $end
   $var wire 32 "8 CDB_SB_WIDTH [31:0] $end
   $var wire 32 "9 CDB_WIDTH [31:0] $end
   $var wire 32 "3 DECODED_INSTRUCTION_WIDTH [31:0] $end
   $var wire 32 "# INSTRUCTION_OP_NUM [31:0] $end
   $var wire 32 "6 ISSUE_ENTRY_WIDTH [31:0] $end
   $var wire 32 "1 I_ROM_DEPTH_P [31:0] $end
   $var wire 32 "# NUM_ARCH_DEST_REG [31:0] $end
   $var wire 32 ~ NUM_ARCH_REG [31:0] $end
   $var wire 32 "# NUM_ARCH_SRC1_REG [31:0] $end
   $var wire 32 ") NUM_DEST_SRC [31:0] $end
   $var wire 32 "# NUM_EXTENDED [31:0] $end
   $var wire 32 ") NUM_FLAGS [31:0] $end
   $var wire 32 "% NUM_FU [31:0] $end
   $var wire 32 "4 NUM_PHYS_REG [31:0] $end
   $var wire 32 ") NUM_S1_SRC [31:0] $end
   $var wire 32 "# NUM_S2_IMM_SRC [31:0] $end
   $var wire 32 "0 RENAMED_INSTRUCTION_WIDTH [31:0] $end
   $var wire 32 "5 ROB_ENTRY [31:0] $end
   $var wire 32 "6 ROB_WIDTH [31:0] $end
   $var wire 32 ~ SB_ENTRY [31:0] $end
   $var wire 32 "7 STORE_BUFFER_WIDTH [31:0] $end
   $var wire 32 ": UCODE_WIDTH_P [31:0] $end
   $var wire 32 ", WIDTH_DEST [31:0] $end
   $var wire 32 "$ WIDTH_FU [31:0] $end
   $var wire 32 "$ WIDTH_IMM [31:0] $end
   $var wire 32 "$ WIDTH_OP [31:0] $end
   $var wire 32 ", WIDTH_S1 [31:0] $end
   $var wire 32 ~ WORD_SIZE_P [31:0] $end
  $upscope $end
  $scope module fe_top $end
   $var wire 16 Z branch_offset_branch_r [15:0] $end
   $var wire 16 ; branch_offset_decode [15:0] $end
   $var wire 16 E branch_target [15:0] $end
   $var wire  1 u clk_i $end
   $var wire  2 $ dest_src_sel [1:0] $end
   $var wire 57 x final_decoded_instruction [56:0] $end
   $var wire  1 R flush_d_b $end
   $var wire  1 R flush_f_d $end
   $var wire 16 ' immediates(0) [15:0] $end
   $var wire 16 ( immediates(1) [15:0] $end
   $var wire 16 ) immediates(2) [15:0] $end
   $var wire 16 * immediates(3) [15:0] $end
   $var wire 16 + immediates(4) [15:0] $end
   $var wire 16 , immediates(5) [15:0] $end
   $var wire 16 - immediates(6) [15:0] $end
   $var wire 16 . immediates(7) [15:0] $end
   $var wire 16 X instruction_decode_r [15:0] $end
   $var wire 16 # instruction_fetch_r [15:0] $end
   $var wire  1 \ is_branch_branch_r $end
   $var wire  1 / is_branch_decode $end
   $var wire 32 } place_holder [31:0] $end
   $var wire 16 W program_counter_decode_r [15:0] $end
   $var wire 16 U program_counter_fetch_r [15:0] $end
   $var wire 16 | program_counter_n [15:0] $end
   $var wire 16 V program_counter_n_p2 [15:0] $end
   $var wire  1 w ready_i $end
   $var wire  1 v reset_i $end
   $var wire  1 S speculative_branch $end
   $var wire  2 % src_1_sel [1:0] $end
   $var wire  3 & src_2_imm_sel [2:0] $end
   $var wire  1 { stall $end
   $var wire  1 R take_branch $end
   $var wire  1 [ valid_d_b $end
   $var wire  1 Y valid_f_d $end
   $var wire  1 z valid_o $end
   $scope module branch_control $end
    $var wire  2 Q branch_op_code_i [1:0] $end
    $var wire  1 \ is_branch_i $end
    $var wire  1 t sign_bit_i $end
    $var wire  1 S speculative_o $end
    $var wire  1 R take_branch_o $end
   $upscope $end
   $scope module branch_imm $end
    $var wire 32 "+ balanced_p [31:0] $end
    $var wire 16 + data_i(0) [15:0] $end
    $var wire 16 , data_i(1) [15:0] $end
    $var wire 16 - data_i(2) [15:0] $end
    $var wire 16 . data_i(3) [15:0] $end
    $var wire 16 ; data_o [15:0] $end
    $var wire 32 ") els_p [31:0] $end
    $var wire 32 "+ harden_p [31:0] $end
    $var wire 32 ", lg_els_lp [31:0] $end
    $var wire  2 A sel_i [1:0] $end
    $var wire 32 ~ width_p [31:0] $end
   $upscope $end
   $scope module decode_branch_pipe $end
    $var wire 32 "0 WIDTH_P [31:0] $end
    $var wire  1 u clk_i $end
    $var wire 74 B data_i [73:0] $end
    $var wire 74 q data_o [73:0] $end
    $var wire  1 T flush $end
    $var wire  1 { stall $end
    $var wire  1 Y v_i $end
    $var wire  1 [ v_o $end
   $upscope $end
   $scope module decoder $end
    $var wire 32 "* INPUT_WIDTH_P [31:0] $end
    $var wire 10 m addr_i [9:0] $end
    $var wire 19 = o [18:0] $end
   $upscope $end
   $scope module dest_src_mux $end
    $var wire 32 "+ balanced_p [31:0] $end
    $var wire  4 n data_i(0) [3:0] $end
    $var wire  4 o data_i(1) [3:0] $end
    $var wire  4 "- data_i(2) [3:0] $end
    $var wire  4 ". data_i(3) [3:0] $end
    $var wire  4 > data_o [3:0] $end
    $var wire 32 ") els_p [31:0] $end
    $var wire 32 "+ harden_p [31:0] $end
    $var wire 32 ", lg_els_lp [31:0] $end
    $var wire  2 $ sel_i [1:0] $end
    $var wire 32 ") width_p [31:0] $end
   $upscope $end
   $scope module extend_the_things $end
    $var wire 16 c imm_11s_lo [15:0] $end
    $var wire 16 _ imm_3z_lo [15:0] $end
    $var wire 16 a imm_5z_lo [15:0] $end
    $var wire 16 d imm_6s_lo [15:0] $end
    $var wire 16 ` imm_7z_lo [15:0] $end
    $var wire 16 b imm_8s_lo [15:0] $end
    $var wire 16 ^ imm_8z_lo [15:0] $end
    $var wire 16 ' immediate_o(0) [15:0] $end
    $var wire 16 ( immediate_o(1) [15:0] $end
    $var wire 16 ) immediate_o(2) [15:0] $end
    $var wire 16 * immediate_o(3) [15:0] $end
    $var wire 16 + immediate_o(4) [15:0] $end
    $var wire 16 , immediate_o(5) [15:0] $end
    $var wire 16 - immediate_o(6) [15:0] $end
    $var wire 16 . immediate_o(7) [15:0] $end
    $var wire 16 X instruction_i [15:0] $end
    $var wire 16 e reg_4z_lo [15:0] $end
    $scope module imm_11s $end
     $var wire 32 "' INPUT_SIZE [31:0] $end
     $var wire 11 j i [10:0] $end
     $var wire 16 c o [15:0] $end
    $upscope $end
    $scope module imm_3z $end
     $var wire 32 "$ INPUT_SIZE [31:0] $end
     $var wire  3 g i [2:0] $end
     $var wire 16 _ o [15:0] $end
    $upscope $end
    $scope module imm_5z $end
     $var wire 32 "& INPUT_SIZE [31:0] $end
     $var wire  5 i i [4:0] $end
     $var wire 16 a o [15:0] $end
    $upscope $end
    $scope module imm_6s $end
     $var wire 32 "( INPUT_SIZE [31:0] $end
     $var wire  6 k i [5:0] $end
     $var wire 16 d o [15:0] $end
    $upscope $end
    $scope module imm_7z $end
     $var wire 32 "% INPUT_SIZE [31:0] $end
     $var wire  7 h i [6:0] $end
     $var wire 16 ` o [15:0] $end
    $upscope $end
    $scope module imm_8s $end
     $var wire 32 "# INPUT_SIZE [31:0] $end
     $var wire  8 f i [7:0] $end
     $var wire 16 b o [15:0] $end
    $upscope $end
    $scope module imm_8z $end
     $var wire 32 "# INPUT_SIZE [31:0] $end
     $var wire  8 f i [7:0] $end
     $var wire 16 ^ o [15:0] $end
    $upscope $end
    $scope module reg_4z $end
     $var wire 32 ") INPUT_SIZE [31:0] $end
     $var wire  4 l i [3:0] $end
     $var wire 16 e o [15:0] $end
    $upscope $end
   $upscope $end
   $scope module fetch_decode_pipe $end
    $var wire 32 "! WIDTH_P [31:0] $end
    $var wire  1 u clk_i $end
    $var wire 32 < data_i [31:0] $end
    $var wire 32 ] data_o [31:0] $end
    $var wire  1 T flush $end
    $var wire  1 { stall $end
    $var wire  1 "" v_i $end
    $var wire  1 Y v_o $end
   $upscope $end
   $scope module instruction_decoded_branch $end
    $var wire  4 M bcc_op [3:0] $end
    $var wire  1 N branch_speculation $end
    $var wire  4 F dest_id [3:0] $end
    $var wire  4 L flags [3:0] $end
    $var wire  3 K func_unit [2:0] $end
    $var wire  1 P imm $end
    $var wire  3 J opcode [2:0] $end
    $var wire 16 I pc [15:0] $end
    $var wire 16 H source2_imm [15:0] $end
    $var wire  4 G source_1 [3:0] $end
    $var wire  1 O w_v $end
   $upscope $end
   $scope module instruction_decoded_decode $end
    $var wire  4 7 bcc_op [3:0] $end
    $var wire  1 8 branch_speculation $end
    $var wire  4 0 dest_id [3:0] $end
    $var wire  4 6 flags [3:0] $end
    $var wire  3 5 func_unit [2:0] $end
    $var wire  1 : imm $end
    $var wire  3 4 opcode [2:0] $end
    $var wire 16 3 pc [15:0] $end
    $var wire 16 2 source2_imm [15:0] $end
    $var wire  4 1 source_1 [3:0] $end
    $var wire  1 9 w_v $end
   $upscope $end
   $scope module instruction_mem $end
    $var wire 32 ~ ADDR_WIDTH_LP [31:0] $end
    $var wire 16 # data_o [15:0] $end
    $var wire 16 U r_addr_i [15:0] $end
   $upscope $end
   $scope module next_pc $end
    $var wire  1 R branch_take $end
    $var wire 16 E branch_target_i [15:0] $end
    $var wire 16 V pc_2_i [15:0] $end
    $var wire 16 U pc_i [15:0] $end
    $var wire 16 | pc_next [15:0] $end
    $var wire  1 v reset_i $end
    $var wire  1 { stall $end
   $upscope $end
   $scope module pc $end
    $var wire  1 u clk_i $end
    $var wire 16 U o [15:0] $end
    $var wire 16 | pc_i [15:0] $end
   $upscope $end
   $scope module src_1_mux $end
    $var wire 32 "+ balanced_p [31:0] $end
    $var wire  4 p data_i(0) [3:0] $end
    $var wire  4 n data_i(1) [3:0] $end
    $var wire  4 "- data_i(2) [3:0] $end
    $var wire  4 "/ data_i(3) [3:0] $end
    $var wire  4 ? data_o [3:0] $end
    $var wire 32 ") els_p [31:0] $end
    $var wire 32 "+ harden_p [31:0] $end
    $var wire 32 ", lg_els_lp [31:0] $end
    $var wire  2 % sel_i [1:0] $end
    $var wire 32 ") width_p [31:0] $end
   $upscope $end
   $scope module src_2_imm_mux $end
    $var wire 32 "+ balanced_p [31:0] $end
    $var wire 16 ' data_i(0) [15:0] $end
    $var wire 16 ( data_i(1) [15:0] $end
    $var wire 16 ) data_i(2) [15:0] $end
    $var wire 16 * data_i(3) [15:0] $end
    $var wire 16 + data_i(4) [15:0] $end
    $var wire 16 , data_i(5) [15:0] $end
    $var wire 16 - data_i(6) [15:0] $end
    $var wire 16 . data_i(7) [15:0] $end
    $var wire 16 @ data_o [15:0] $end
    $var wire 32 "# els_p [31:0] $end
    $var wire 32 "+ harden_p [31:0] $end
    $var wire 32 "$ lg_els_lp [31:0] $end
    $var wire  3 & sel_i [2:0] $end
    $var wire 32 ~ width_p [31:0] $end
   $upscope $end
  $upscope $end
 $upscope $end
$enddefinitions $end


#1
b0010011110000000 #
b01 $
b11 %
b000 &
b0000000010000000 '
b0000000000000110 (
b0000000000000000 )
b0000000000011110 *
b1111111110000000 +
b1111111110000000 ,
b0000000000000000 -
b0000000000000000 .
0/
b0111 0
b1100 1
b0000000010000000 2
b0000000000000000 3
b000 4
b001 5
b0110 6
b0111 7
08
19
1:
b1111111110000000 ;
b00000000000000000010011110000000 <
b1000001011001110001 =
b0111 >
b1100 ?
b0000000010000000 @
b00 A
b01111100000000001000000000000000000000000000010110011101101111111110000000 B
b0000000000000000 E
b0000 F
b0000 G
b0000000000000000 H
b0000000000000000 I
b000 J
b000 K
b0000 L
b0000 M
0N
0O
0P
b00 Q
0R
0S
1T
b0000000000000000 U
b0000000000000001 V
b0000000000000000 W
b0010011110000000 X
0Y
b0000000000000000 Z
0[
0\
b00000000000000000010011110000000 ]
b0000000010000000 ^
b0000000000000110 _
b0000000000000000 `
b0000000000011110 a
b1111111110000000 b
b1111111110000000 c
b0000000000000000 d
b0000000000000000 e
b10000000 f
b110 g
b0000000 h
b11110 i
b11110000000 j
b000000 k
b0000 l
b0010011110 m
b0000 n
b0111 o
b0000 p
b00000000000000000000000000000000000000000000000000000000000000000000000000 q
0t
1u
1v
0w
b000000000000000000000000000000000000000000000000000000000 x
0z
1{
b0000000000000000 |
b11111111111111111111111111111111 }
b00000000000000000000000000010000 ~
b00000000000000000000000000100000 "!
1""
b00000000000000000000000000001000 "#
b00000000000000000000000000000011 "$
b00000000000000000000000000000111 "%
b00000000000000000000000000000101 "&
b00000000000000000000000000001011 "'
b00000000000000000000000000000110 "(
b00000000000000000000000000000100 ")
b00000000000000000000000000001010 "*
b00000000000000000000000000000000 "+
b00000000000000000000000000000010 ",
b1101 "-
b1110 ".
b1100 "/
b00000000000000000000000001001010 "0
b00000000000000010000000000000000 "1
b00000000000000000000000000001111 "2
b00000000000000000000000000111001 "3
b00000000000000000000000010000000 "4
b00000000000000000000000001000000 "5
b00000000000000000000000000110111 "6
b00000000000000000000000000100001 "7
b00000000000000000000000000010101 "8
b00000000000000000000000000101101 "9
b00000000000000000000000000010011 ":
#2
0u
#3
b1111111110000000 E
b0111 F
b1100 G
b0000000010000000 H
b001 K
b0110 L
b0111 M
1O
1P
b1111111110000000 Z
b01111100000000001000000000000000000000000000010110011101101111111110000000 q
1t
1u
b011111000000000010000000000000000000000000000101100111011 x
#4
0u
#5
1u
#6
0u
#7
1u
#8
0u
#9
1u
#10
0u
#11
0T
1u
0v
1w
0{
b0000000000000001 |
#12
0u
#13
b0010000100001000 #
b00000000000000010010000100001000 <
b0000000000000001 U
b0000000000000010 V
1Y
1u
b0000000000000010 |
#14
0u
#15
b0100000010001111 #
b0000000000001000 '
b0000000000000100 (
b0000000000001000 )
b0000000000000100 *
b0000000000001000 +
b0000000100001000 ,
b0000000000001000 -
b0000000000000001 .
b0001 0
b0000000000001000 2
b0000000000000001 3
b0001 7
b0000000000001000 ;
b00000000000000100100000010001111 <
b0001 >
b0000000000001000 @
b00011100000000000000100000000000000000010000010110000101100000000000001000 B
b0000000000000010 U
b0000000000000011 V
b0000000000000001 W
b0010000100001000 X
1[
b00000000000000010010000100001000 ]
b0000000000001000 ^
b0000000000000100 _
b0000000000001000 `
b0000000000000100 a
b0000000000001000 b
b0000000100001000 c
b0000000000001000 d
b0000000000000001 e
b00001000 f
b100 g
b0001000 h
b00100 i
b00100001000 j
b001000 k
b0001 l
b0010000100 m
b0001 o
b0001 p
1u
1z
b0000000000000011 |
#16
0u
#17
b0010000100000000 #
b00 $
b00 %
b0000000010001111 '
b0000000000000010 (
b0000000000001111 )
b0000000000000010 *
b1111111110001111 +
b0000000010001111 ,
b0000000000001111 -
b0111 0
b0001 1
b0000000010001111 2
b0000000000000010 3
b100 4
b010 5
b1110 6
b0000 7
0:
b1111111110001111 ;
b00000000000000110010000100000000 <
b1100010111000000000 =
b0111 >
b0001 ?
b0000000010001111 @
b01110001000000001000111100000000000000101000101110000001001111111110001111 B
b0000000000001001 E
b0001 F
b0000000000001000 H
b0000000000000001 I
b0001 M
b0000000000000011 U
b0000000000000100 V
b0000000000000010 W
b0100000010001111 X
b0000000000001000 Z
b00000000000000100100000010001111 ]
b0000000010001111 ^
b0000000000000010 _
b0000000000001111 `
b0000000000000010 a
b1111111110001111 b
b0000000010001111 c
b0000000000001111 d
b10001111 f
b010 g
b0001111 h
b00010 i
b00010001111 j
b001111 k
b0100000010 m
b0111 n
b0000 o
b00011100000000000000100000000000000000010000010110000101100000000000001000 q
0t
1u
b000111000000000000001000000000000000000100000101100001011 x
b0000000000000100 |
#18
0u
#19
b0100001100111001 #
b01 $
b11 %
b0000000000000000 '
b0000000000000100 (
b0000000000000000 )
b0000000000000100 *
b0000000000000000 +
b0000000100000000 ,
b0000000000000000 -
b0000000000000000 .
b0001 0
b1100 1
b0000000000000000 2
b0000000000000011 3
b000 4
b001 5
b0110 6
b0001 7
1:
b0000000000000000 ;
b00000000000001000100001100111001 <
b1000001011001110001 =
b0001 >
b1100 ?
b0000000000000000 @
b00011100000000000000000000000000000000110000010110000101100000000000000000 B
b1111111110010001 E
b0111 F
b0001 G
b0000000010001111 H
b0000000000000010 I
b100 J
b010 K
b1110 L
b0000 M
0P
b0000000000000100 U
b0000000000000101 V
b0000000000000011 W
b0010000100000000 X
b1111111110001111 Z
b00000000000000110010000100000000 ]
b0000000000000000 ^
b0000000000000100 _
b0000000000000000 `
b0000000000000100 a
b0000000000000000 b
b0000000100000000 c
b0000000000000000 d
b0000000000000000 e
b00000000 f
b100 g
b0000000 h
b00100 i
b00100000000 j
b000000 k
b0000 l
b0010000100 m
b0000 n
b0001 o
b0000 p
b01110001000000001000111100000000000000101000101110000001001111111110001111 q
1t
1u
b011100010000000010001111000000000000001010001011100000010 x
b0000000000000101 |
#20
0u
#21
b0010011100000000 #
b00 $
b00 %
b0000000000111001 '
b0000000000111001 )
b0000000000001100 *
b0000000000111001 +
b0000001100111001 ,
b1111111111111001 -
b0000000000000111 .
b0111 1
b0000000000111001 2
b0000000000000100 3
b010 4
b010 5
b0011 7
0:
b1111111111111001 ;
b00000000000001010010011100000000 <
b1010010011000000000 =
b0111 ?
b0000000000111001 @
b10 A
b00010111000000000011100100000000000001000100100110001101001111111111111001 B
b0000000000000011 E
b0001 F
b1100 G
b0000000000000000 H
b0000000000000011 I
b000 J
b001 K
b0110 L
b0001 M
1P
b0000000000000101 U
b0000000000000110 V
b0000000000000100 W
b0100001100111001 X
b0000000000000000 Z
b00000000000001000100001100111001 ]
b0000000000111001 ^
b0000000000111001 `
b0000000000001100 a
b0000000000111001 b
b0000001100111001 c
b1111111111111001 d
b0000000000000111 e
b00111001 f
b0111001 h
b01100 i
b01100111001 j
b111001 k
b0111 l
b0100001100 m
b0001 n
b0011 o
b0111 p
b00011100000000000000000000000000000000110000010110000101100000000000000000 q
0t
1u
b000111000000000000000000000000000000001100000101100001011 x
b0000000000000110 |
#22
0u
#23
b0010001100001000 #
b01 $
b11 %
b0000000000000000 '
b0000000000000000 )
b0000000000011100 *
b0000000000000000 +
b1111111100000000 ,
b0000000000000000 -
b0000000000000000 .
b0111 0
b1100 1
b0000000000000000 2
b0000000000000101 3
b000 4
b001 5
b0111 7
1:
b0000000000000000 ;
b00000000000001100010001100001000 <
b1000001011001110001 =
b0111 >
b1100 ?
b0000000000000000 @
b00 A
b01111100000000000000000000000000000001010000010110011101100000000000000000 B
b1111111111111101 E
b0111 G
b0000000000111001 H
b0000000000000100 I
b010 J
b010 K
b0011 M
0P
b10 Q
b0000000000000110 U
b0000000000000111 V
b0000000000000101 W
b0010011100000000 X
b1111111111111001 Z
b00000000000001010010011100000000 ]
b0000000000000000 ^
b0000000000000000 `
b0000000000011100 a
b0000000000000000 b
b1111111100000000 c
b0000000000000000 d
b0000000000000000 e
b00000000 f
b0000000 h
b11100 i
b11100000000 j
b000000 k
b0000 l
b0010011100 m
b0000 n
b0111 o
b0000 p
b00010111000000000011100100000000000001000100100110001101001111111111111001 q
1t
1u
b000101110000000000111001000000000000010001001001100011010 x
b0000000000000111 |
#24
0u
#25
b0100000010011111 #
b0000000000001000 '
b0000000000001000 )
b0000000000001100 *
b0000000000001000 +
b0000001100001000 ,
b0000000000001000 -
b0000000000000001 .
b0011 0
b0000000000001000 2
b0000000000000110 3
b0011 7
b0000000000001000 ;
b00000000000001110100000010011111 <
b0011 >
b0000000000001000 @
b00111100000000000000100000000000000001100000010110001101100000000000001000 B
b0000000000000101 E
b0111 F
b1100 G
b0000000000000000 H
b0000000000000101 I
b000 J
b001 K
b0111 M
1P
b00 Q
b0000000000000111 U
b0000000000001000 V
b0000000000000110 W
b0010001100001000 X
b0000000000000000 Z
b00000000000001100010001100001000 ]
b0000000000001000 ^
b0000000000001000 `
b0000000000001100 a
b0000000000001000 b
b0000001100001000 c
b0000000000001000 d
b0000000000000001 e
b00001000 f
b0001000 h
b01100 i
b01100001000 j
b001000 k
b0001 l
b0010001100 m
b0011 o
b0001 p
b01111100000000000000000000000000000001010000010110011101100000000000000000 q
0t
1u
b011111000000000000000000000000000000010100000101100111011 x
b0000000000001000 |
#26
0u
#27
b0010001100000010 #
b00 $
b00 %
b0000000010011111 '
b0000000000000010 (
b0000000000011111 )
b0000000000000010 *
b1111111110011111 +
b0000000010011111 ,
b0000000000011111 -
b0000000000000011 .
b0111 0
b0011 1
b0000000010011111 2
b0000000000000111 3
b100 4
b010 5
b1110 6
b0000 7
0:
b1111111110011111 ;
b00000000000010000010001100000010 <
b1100010111000000000 =
b0111 >
b0011 ?
b0000000010011111 @
b01110011000000001001111100000000000001111000101110000001001111111110011111 B
b0000000000001110 E
b0011 F
b0000000000001000 H
b0000000000000110 I
b0011 M
b0000000000001000 U
b0000000000001001 V
b0000000000000111 W
b0100000010011111 X
b0000000000001000 Z
b00000000000001110100000010011111 ]
b0000000010011111 ^
b0000000000000010 _
b0000000000011111 `
b0000000000000010 a
b1111111110011111 b
b0000000010011111 c
b0000000000011111 d
b0000000000000011 e
b10011111 f
b010 g
b0011111 h
b00010 i
b00010011111 j
b011111 k
b0011 l
b0100000010 m
b0111 n
b0000 o
b0011 p
b00111100000000000000100000000000000001100000010110001101100000000000001000 q
1u
b001111000000000000001000000000000000011000000101100011011 x
b0000000000001001 |
#28
0u
#29
b0100001100111011 #
b01 $
b11 %
b0000000000000010 '
b0000000000000100 (
b0000000000000010 )
b0000000000001100 *
b0000000000000010 +
b0000001100000010 ,
b0000000000000010 -
b0000000000000000 .
b0011 0
b1100 1
b0000000000000010 2
b0000000000001000 3
b000 4
b001 5
b0110 6
b0011 7
1:
b0000000000000010 ;
b00000000000010010100001100111011 <
b1000001011001110001 =
b0011 >
b1100 ?
b0000000000000010 @
b00111100000000000000001000000000000010000000010110001101100000000000000010 B
b1111111110100110 E
b0111 F
b0011 G
b0000000010011111 H
b0000000000000111 I
b100 J
b010 K
b1110 L
b0000 M
0P
b0000000000001001 U
b0000000000001010 V
b0000000000001000 W
b0010001100000010 X
b1111111110011111 Z
b00000000000010000010001100000010 ]
b0000000000000010 ^
b0000000000000100 _
b0000000000000010 `
b0000000000001100 a
b0000000000000010 b
b0000001100000010 c
b0000000000000010 d
b0000000000000000 e
b00000010 f
b100 g
b0000010 h
b01100 i
b01100000010 j
b000010 k
b0000 l
b0010001100 m
b0010 n
b0011 o
b0000 p
b01110011000000001001111100000000000001111000101110000001001111111110011111 q
1t
1u
b011100110000000010011111000000000000011110001011100000010 x
b0000000000001010 |
#30
0u
#31
b0100000110011001 #
b00 $
b00 %
b0000000000111011 '
b0000000000111011 )
b0000000000111011 +
b0000001100111011 ,
b1111111111111011 -
b0000000000000111 .
b0111 1
b0000000000111011 2
b0000000000001001 3
b010 4
b010 5
0:
b1111111111111011 ;
b00000000000010100100000110011001 <
b1010010011000000000 =
b0111 ?
b0000000000111011 @
b10 A
b00110111000000000011101100000000000010010100100110001101001111111111111011 B
b0000000000001010 E
b0011 F
b1100 G
b0000000000000010 H
b0000000000001000 I
b000 J
b001 K
b0110 L
b0011 M
1P
b0000000000001010 U
b0000000000001011 V
b0000000000001001 W
b0100001100111011 X
b0000000000000010 Z
b00000000000010010100001100111011 ]
b0000000000111011 ^
b0000000000111011 `
b0000000000111011 b
b0000001100111011 c
b1111111111111011 d
b0000000000000111 e
b00111011 f
b0111011 h
b01100111011 j
b111011 k
b0111 l
b0100001100 m
b0011 n
b0111 p
b00111100000000000000001000000000000010000000010110001101100000000000000010 q
0t
1u
b001111000000000000000010000000000000100000000101100011011 x
b0000000000001011 |
#32
0u
#33
b0000000010011001 '
b0000000000000110 (
b0000000000011001 )
b0000000000000110 *
b1111111110011001 +
b0000000110011001 ,
b0000000000011001 -
b0000000000000011 .
b0001 0
b0011 1
b0000000010011001 2
b0000000000001010 3
b000 4
b110 5
b0000 6
b0001 7
b1111111110011001 ;
b00000000000010110100000110011001 <
b1000110000000000000 =
b0001 >
b0011 ?
b0000000010011001 @
b00 A
b00010011000000001001100100000000000010100001100000000101001111111110011001 B
b0000000000000100 E
b0111 G
b0000000000111011 H
b0000000000001001 I
b010 J
b010 K
0P
b10 Q
b0000000000001011 U
b0000000000001100 V
b0000000000001010 W
b0100000110011001 X
b1111111111111011 Z
b00000000000010100100000110011001 ]
b0000000010011001 ^
b0000000000000110 _
b0000000000011001 `
b0000000000000110 a
b1111111110011001 b
b0000000110011001 c
b0000000000011001 d
b0000000000000011 e
b10011001 f
b110 g
b0011001 h
b00110 i
b00110011001 j
b011001 k
b0011 l
b0100000110 m
b0001 n
b0001 o
b0011 p
b00110111000000000011101100000000000010010100100110001101001111111111111011 q
1t
1u
b001101110000000000111011000000000000100101001001100011010 x
b0000000000001100 |
#34
0u
#35
b0000000000001011 3
b00000000000011000100000110011001 <
b00010011000000001001100100000000000010110001100000000101001111111110011001 B
b1111111110100011 E
b0001 F
b0011 G
b0000000010011001 H
b0000000000001010 I
b000 J
b110 K
b0000 L
b0001 M
b00 Q
b0000000000001100 U
b0000000000001101 V
b0000000000001011 W
b1111111110011001 Z
b00000000000010110100000110011001 ]
b00010011000000001001100100000000000010100001100000000101001111111110011001 q
1u
b000100110000000010011001000000000000101000011000000001010 x
b0000000000001101 |
#36
0u
#37
b0000000000001100 3
b00000000000011010100000110011001 <
b00010011000000001001100100000000000011000001100000000101001111111110011001 B
b1111111110100100 E
b0000000000001011 I
b0000000000001101 U
b0000000000001110 V
b0000000000001100 W
b00000000000011000100000110011001 ]
b00010011000000001001100100000000000010110001100000000101001111111110011001 q
1u
b000100110000000010011001000000000000101100011000000001010 x
b0000000000001110 |
#38
0u
#39
b0100000101001010 #
b0000000000001101 3
b00000000000011100100000101001010 <
b00010011000000001001100100000000000011010001100000000101001111111110011001 B
b1111111110100101 E
b0000000000001100 I
b0000000000001110 U
b0000000000001111 V
b0000000000001101 W
b00000000000011010100000110011001 ]
b00010011000000001001100100000000000011000001100000000101001111111110011001 q
1u
b000100110000000010011001000000000000110000011000000001010 x
b0000000000001111 |
#40
0u
#41
b0000000001001010 '
b0000000000000101 (
b0000000001001010 )
b0000000000000101 *
b0000000001001010 +
b0000000101001010 ,
b0000000000001010 -
b0000000000001001 .
b0010 0
b0001 1
b0000000001001010 2
b0000000000001110 3
b101 5
b0000000001001010 ;
b00000000000011110100000101001010 <
b1000101000000000000 =
b0010 >
b0001 ?
b0000000001001010 @
b00100001000000000100101000000000000011100001010000000101000000000001001010 B
b1111111110100110 E
b0000000000001101 I
b0000000000001111 U
b0000000000010000 V
b0000000000001110 W
b0100000101001010 X
b00000000000011100100000101001010 ]
b0000000001001010 ^
b0000000000000101 _
b0000000001001010 `
b0000000000000101 a
b0000000001001010 b
b0000000101001010 c
b0000000000001010 d
b0000000000001001 e
b01001010 f
b101 g
b1001010 h
b00101 i
b00101001010 j
b001010 k
b1001 l
b0100000101 m
b0010 n
b0001 p
b00010011000000001001100100000000000011010001100000000101001111111110011001 q
1u
b000100110000000010011001000000000000110100011000000001010 x
b0000000000010000 |
#42
0u
#43
b0000000000001111 3
b00000000000100000100000101001010 <
b00100001000000000100101000000000000011110001010000000101000000000001001010 B
b0000000001011000 E
b0010 F
b0001 G
b0000000001001010 H
b0000000000001110 I
b101 K
b0000000000010000 U
b0000000000010001 V
b0000000000001111 W
b0000000001001010 Z
b00000000000011110100000101001010 ]
b00100001000000000100101000000000000011100001010000000101000000000001001010 q
0t
1u
b001000010000000001001010000000000000111000010100000001010 x
b0000000000010001 |
#44
0u
#45
b0000000000010000 3
b00000000000100010100000101001010 <
b00100001000000000100101000000000000100000001010000000101000000000001001010 B
b0000000001011001 E
b0000000000001111 I
b0000000000010001 U
b0000000000010010 V
b0000000000010000 W
b00000000000100000100000101001010 ]
b00100001000000000100101000000000000011110001010000000101000000000001001010 q
1u
b001000010000000001001010000000000000111100010100000001010 x
b0000000000010010 |
#46
0u
#47
b0001110000001010 #
b0000000000010001 3
b00000000000100100001110000001010 <
b00100001000000000100101000000000000100010001010000000101000000000001001010 B
b0000000001011010 E
b0000000000010000 I
b0000000000010010 U
b0000000000010011 V
b0000000000010001 W
b00000000000100010100000101001010 ]
b00100001000000000100101000000000000100000001010000000101000000000001001010 q
1u
b001000010000000001001010000000000001000000010100000001010 x
b0000000000010011 |
#48
0u
#49
b001 &
b0000000000001010 '
b0000000000000000 (
b0000000000001010 )
b0000000000010000 *
b0000000000001010 +
b1111110000001010 ,
b0000000000000001 .
b0000000000000000 2
b0000000000010010 3
b001 5
b1111 6
b1100 7
1:
b0000000000001010 ;
b00000000000100110001110000001010 <
b1000001111100000011 =
b0000000000000000 @
b00100001000000000000000000000000000100100000011111110001100000000000001010 B
b0000000001011011 E
b0000000000010001 I
b0000000000010011 U
b0000000000010100 V
b0000000000010010 W
b0001110000001010 X
b00000000000100100001110000001010 ]
b0000000000001010 ^
b0000000000000000 _
b0000000000001010 `
b0000000000010000 a
b0000000000001010 b
b1111110000001010 c
b0000000000000001 e
b00001010 f
b000 g
b0001010 h
b10000 i
b10000001010 j
b0001 l
b0001110000 m
b0100 o
b00100001000000000100101000000000000100010001010000000101000000000001001010 q
1u
b001000010000000001001010000000000001000100010100000001010 x
b0000000000010100 |
#50
0u
#51
b0000000000010011 3
b00000000000101000001110000001010 <
b00100001000000000000000000000000000100110000011111110001100000000000001010 B
b0000000000011100 E
b0000000000000000 H
b0000000000010010 I
b001 K
b1111 L
b1100 M
1P
b0000000000010100 U
b0000000000010101 V
b0000000000010011 W
b0000000000001010 Z
b00000000000100110001110000001010 ]
b00100001000000000000000000000000000100100000011111110001100000000000001010 q
1u
b001000010000000000000000000000000001001000000111111100011 x
b0000000000010101 |
#52
0u
