FE/obj_dir/Vfe_top.vcd
$version Generated by VerilatedVcd $end
$date Sun May 12 14:13:15 2019
 $end
$timescale   1ns $end

 $scope module TOP $end
  $var wire  1 u clk_i $end
  $var wire 57 x final_decoded_instruction [56:0] $end
  $var wire  1 w ready_i $end
  $var wire  1 v reset_i $end
  $var wire  1 z valid_o $end
  $scope module $unit $end
   $var wire 32 "2 BRANCH_CC_NUM [31:0] $end
   $var wire 32 "8 CDB_SB_WIDTH [31:0] $end
   $var wire 32 "9 CDB_WIDTH [31:0] $end
   $var wire 32 "3 DECODED_INSTRUCTION_WIDTH [31:0] $end
   $var wire 32 "# INSTRUCTION_OP_NUM [31:0] $end
   $var wire 32 "6 ISSUE_ENTRY_WIDTH [31:0] $end
   $var wire 32 "1 I_ROM_DEPTH_P [31:0] $end
   $var wire 32 "# NUM_ARCH_DEST_REG [31:0] $end
   $var wire 32 ~ NUM_ARCH_REG [31:0] $end
   $var wire 32 "# NUM_ARCH_SRC1_REG [31:0] $end
   $var wire 32 ") NUM_DEST_SRC [31:0] $end
   $var wire 32 "# NUM_EXTENDED [31:0] $end
   $var wire 32 ") NUM_FLAGS [31:0] $end
   $var wire 32 "% NUM_FU [31:0] $end
   $var wire 32 "4 NUM_PHYS_REG [31:0] $end
   $var wire 32 ") NUM_S1_SRC [31:0] $end
   $var wire 32 "# NUM_S2_IMM_SRC [31:0] $end
   $var wire 32 "0 RENAMED_INSTRUCTION_WIDTH [31:0] $end
   $var wire 32 "5 ROB_ENTRY [31:0] $end
   $var wire 32 "6 ROB_WIDTH [31:0] $end
   $var wire 32 ~ SB_ENTRY [31:0] $end
   $var wire 32 "7 STORE_BUFFER_WIDTH [31:0] $end
   $var wire 32 ": UCODE_WIDTH_P [31:0] $end
   $var wire 32 ", WIDTH_DEST [31:0] $end
   $var wire 32 "$ WIDTH_FU [31:0] $end
   $var wire 32 "$ WIDTH_IMM [31:0] $end
   $var wire 32 "$ WIDTH_OP [31:0] $end
   $var wire 32 ", WIDTH_S1 [31:0] $end
   $var wire 32 ~ WORD_SIZE_P [31:0] $end
  $upscope $end
  $scope module fe_top $end
   $var wire 16 Z branch_offset_branch_r [15:0] $end
   $var wire 16 ; branch_offset_decode [15:0] $end
   $var wire 16 E branch_target [15:0] $end
   $var wire  1 u clk_i $end
   $var wire  2 $ dest_src_sel [1:0] $end
   $var wire 57 x final_decoded_instruction [56:0] $end
   $var wire  1 R flush_d_b $end
   $var wire  1 R flush_f_d $end
   $var wire 16 ' immediates(0) [15:0] $end
   $var wire 16 ( immediates(1) [15:0] $end
   $var wire 16 ) immediates(2) [15:0] $end
   $var wire 16 * immediates(3) [15:0] $end
   $var wire 16 + immediates(4) [15:0] $end
   $var wire 16 , immediates(5) [15:0] $end
   $var wire 16 - immediates(6) [15:0] $end
   $var wire 16 . immediates(7) [15:0] $end
   $var wire 16 X instruction_decode_r [15:0] $end
   $var wire 16 # instruction_fetch_r [15:0] $end
   $var wire  1 \ is_branch_branch_r $end
   $var wire  1 / is_branch_decode $end
   $var wire 32 } place_holder [31:0] $end
   $var wire 16 W program_counter_decode_r [15:0] $end
   $var wire 16 U program_counter_fetch_r [15:0] $end
   $var wire 16 | program_counter_n [15:0] $end
   $var wire 16 V program_counter_n_p2 [15:0] $end
   $var wire  1 w ready_i $end
   $var wire  1 v reset_i $end
   $var wire  1 S speculative_branch $end
   $var wire  2 % src_1_sel [1:0] $end
   $var wire  3 & src_2_imm_sel [2:0] $end
   $var wire  1 { stall $end
   $var wire  1 R take_branch $end
   $var wire  1 [ valid_d_b $end
   $var wire  1 Y valid_f_d $end
   $var wire  1 z valid_o $end
   $scope module branch_control $end
    $var wire  2 Q branch_op_code_i [1:0] $end
    $var wire  1 \ is_branch_i $end
    $var wire  1 t sign_bit_i $end
    $var wire  1 S speculative_o $end
    $var wire  1 R take_branch_o $end
   $upscope $end
   $scope module branch_imm $end
    $var wire 32 "+ balanced_p [31:0] $end
    $var wire 16 + data_i(0) [15:0] $end
    $var wire 16 , data_i(1) [15:0] $end
    $var wire 16 - data_i(2) [15:0] $end
    $var wire 16 . data_i(3) [15:0] $end
    $var wire 16 ; data_o [15:0] $end
    $var wire 32 ") els_p [31:0] $end
    $var wire 32 "+ harden_p [31:0] $end
    $var wire 32 ", lg_els_lp [31:0] $end
    $var wire  2 A sel_i [1:0] $end
    $var wire 32 ~ width_p [31:0] $end
   $upscope $end
   $scope module decode_branch_pipe $end
    $var wire 32 "0 WIDTH_P [31:0] $end
    $var wire  1 u clk_i $end
    $var wire 74 B data_i [73:0] $end
    $var wire 74 q data_o [73:0] $end
    $var wire  1 T flush $end
    $var wire  1 { stall $end
    $var wire  1 Y v_i $end
    $var wire  1 [ v_o $end
   $upscope $end
   $scope module decoder $end
    $var wire 32 "* INPUT_WIDTH_P [31:0] $end
    $var wire 10 m addr_i [9:0] $end
    $var wire 19 = o [18:0] $end
   $upscope $end
   $scope module dest_src_mux $end
    $var wire 32 "+ balanced_p [31:0] $end
    $var wire  4 n data_i(0) [3:0] $end
    $var wire  4 o data_i(1) [3:0] $end
    $var wire  4 "- data_i(2) [3:0] $end
    $var wire  4 ". data_i(3) [3:0] $end
    $var wire  4 > data_o [3:0] $end
    $var wire 32 ") els_p [31:0] $end
    $var wire 32 "+ harden_p [31:0] $end
    $var wire 32 ", lg_els_lp [31:0] $end
    $var wire  2 $ sel_i [1:0] $end
    $var wire 32 ") width_p [31:0] $end
   $upscope $end
   $scope module extend_the_things $end
    $var wire 16 c imm_11s_lo [15:0] $end
    $var wire 16 _ imm_3z_lo [15:0] $end
    $var wire 16 a imm_5z_lo [15:0] $end
    $var wire 16 d imm_6s_lo [15:0] $end
    $var wire 16 ` imm_7z_lo [15:0] $end
    $var wire 16 b imm_8s_lo [15:0] $end
    $var wire 16 ^ imm_8z_lo [15:0] $end
    $var wire 16 ' immediate_o(0) [15:0] $end
    $var wire 16 ( immediate_o(1) [15:0] $end
    $var wire 16 ) immediate_o(2) [15:0] $end
    $var wire 16 * immediate_o(3) [15:0] $end
    $var wire 16 + immediate_o(4) [15:0] $end
    $var wire 16 , immediate_o(5) [15:0] $end
    $var wire 16 - immediate_o(6) [15:0] $end
    $var wire 16 . immediate_o(7) [15:0] $end
    $var wire 16 X instruction_i [15:0] $end
    $var wire 16 e reg_4z_lo [15:0] $end
    $scope module imm_11s $end
     $var wire 32 "' INPUT_SIZE [31:0] $end
     $var wire 11 j i [10:0] $end
     $var wire 16 c o [15:0] $end
    $upscope $end
    $scope module imm_3z $end
     $var wire 32 "$ INPUT_SIZE [31:0] $end
     $var wire  3 g i [2:0] $end
     $var wire 16 _ o [15:0] $end
    $upscope $end
    $scope module imm_5z $end
     $var wire 32 "& INPUT_SIZE [31:0] $end
     $var wire  5 i i [4:0] $end
     $var wire 16 a o [15:0] $end
    $upscope $end
    $scope module imm_6s $end
     $var wire 32 "( INPUT_SIZE [31:0] $end
     $var wire  6 k i [5:0] $end
     $var wire 16 d o [15:0] $end
    $upscope $end
    $scope module imm_7z $end
     $var wire 32 "% INPUT_SIZE [31:0] $end
     $var wire  7 h i [6:0] $end
     $var wire 16 ` o [15:0] $end
    $upscope $end
    $scope module imm_8s $end
     $var wire 32 "# INPUT_SIZE [31:0] $end
     $var wire  8 f i [7:0] $end
     $var wire 16 b o [15:0] $end
    $upscope $end
    $scope module imm_8z $end
     $var wire 32 "# INPUT_SIZE [31:0] $end
     $var wire  8 f i [7:0] $end
     $var wire 16 ^ o [15:0] $end
    $upscope $end
    $scope module reg_4z $end
     $var wire 32 ") INPUT_SIZE [31:0] $end
     $var wire  4 l i [3:0] $end
     $var wire 16 e o [15:0] $end
    $upscope $end
   $upscope $end
   $scope module fetch_decode_pipe $end
    $var wire 32 "! WIDTH_P [31:0] $end
    $var wire  1 u clk_i $end
    $var wire 32 < data_i [31:0] $end
    $var wire 32 ] data_o [31:0] $end
    $var wire  1 T flush $end
    $var wire  1 { stall $end
    $var wire  1 "" v_i $end
    $var wire  1 Y v_o $end
   $upscope $end
   $scope module instruction_decoded_branch $end
    $var wire  4 M bcc_op [3:0] $end
    $var wire  1 N branch_speculation $end
    $var wire  4 F dest_id [3:0] $end
    $var wire  4 L flags [3:0] $end
    $var wire  3 K func_unit [2:0] $end
    $var wire  1 P imm $end
    $var wire  3 J opcode [2:0] $end
    $var wire 16 I pc [15:0] $end
    $var wire 16 H source2_imm [15:0] $end
    $var wire  4 G source_1 [3:0] $end
    $var wire  1 O w_v $end
   $upscope $end
   $scope module instruction_decoded_decode $end
    $var wire  4 7 bcc_op [3:0] $end
    $var wire  1 8 branch_speculation $end
    $var wire  4 0 dest_id [3:0] $end
    $var wire  4 6 flags [3:0] $end
    $var wire  3 5 func_unit [2:0] $end
    $var wire  1 : imm $end
    $var wire  3 4 opcode [2:0] $end
    $var wire 16 3 pc [15:0] $end
    $var wire 16 2 source2_imm [15:0] $end
    $var wire  4 1 source_1 [3:0] $end
    $var wire  1 9 w_v $end
   $upscope $end
   $scope module instruction_mem $end
    $var wire 32 ~ ADDR_WIDTH_LP [31:0] $end
    $var wire 16 # data_o [15:0] $end
    $var wire 16 U r_addr_i [15:0] $end
   $upscope $end
   $scope module next_pc $end
    $var wire  1 R branch_take $end
    $var wire 16 E branch_target_i [15:0] $end
    $var wire 16 V pc_2_i [15:0] $end
    $var wire 16 U pc_i [15:0] $end
    $var wire 16 | pc_next [15:0] $end
    $var wire  1 v reset_i $end
    $var wire  1 { stall $end
   $upscope $end
   $scope module pc $end
    $var wire  1 u clk_i $end
    $var wire 16 U o [15:0] $end
    $var wire 16 | pc_i [15:0] $end
   $upscope $end
   $scope module src_1_mux $end
    $var wire 32 "+ balanced_p [31:0] $end
    $var wire  4 p data_i(0) [3:0] $end
    $var wire  4 n data_i(1) [3:0] $end
    $var wire  4 "- data_i(2) [3:0] $end
    $var wire  4 "/ data_i(3) [3:0] $end
    $var wire  4 ? data_o [3:0] $end
    $var wire 32 ") els_p [31:0] $end
    $var wire 32 "+ harden_p [31:0] $end
    $var wire 32 ", lg_els_lp [31:0] $end
    $var wire  2 % sel_i [1:0] $end
    $var wire 32 ") width_p [31:0] $end
   $upscope $end
   $scope module src_2_imm_mux $end
    $var wire 32 "+ balanced_p [31:0] $end
    $var wire 16 ' data_i(0) [15:0] $end
    $var wire 16 ( data_i(1) [15:0] $end
    $var wire 16 ) data_i(2) [15:0] $end
    $var wire 16 * data_i(3) [15:0] $end
    $var wire 16 + data_i(4) [15:0] $end
    $var wire 16 , data_i(5) [15:0] $end
    $var wire 16 - data_i(6) [15:0] $end
    $var wire 16 . data_i(7) [15:0] $end
    $var wire 16 @ data_o [15:0] $end
    $var wire 32 "# els_p [31:0] $end
    $var wire 32 "+ harden_p [31:0] $end
    $var wire 32 "$ lg_els_lp [31:0] $end
    $var wire  3 & sel_i [2:0] $end
    $var wire 32 ~ width_p [31:0] $end
   $upscope $end
  $upscope $end
 $upscope $end
$enddefinitions $end


#1
b0010001000000011 #
b01 $
b11 %
b000 &
b0000000000000011 '
b0000000000000000 (
b0000000000000011 )
b0000000000001000 *
b0000000000000011 +
b0000001000000011 ,
b0000000000000011 -
b0000000000000000 .
0/
b0010 0
b1100 1
b0000000000000011 2
b0000000000000000 3
b000 4
b001 5
b0110 6
b0010 7
08
19
1:
b0000000000000011 ;
b00000000000000000010001000000011 <
b1000001011001110001 =
b0010 >
b1100 ?
b0000000000000011 @
b00 A
b00101100000000000000001100000000000000000000010110001001100000000000000011 B
b0000000000000000 E
b0000 F
b0000 G
b0000000000000000 H
b0000000000000000 I
b000 J
b000 K
b0000 L
b0000 M
0N
0O
0P
b00 Q
0R
0S
1T
b0000000000000000 U
b0000000000000001 V
b0000000000000000 W
b0010001000000011 X
0Y
b0000000000000000 Z
0[
0\
b00000000000000000010001000000011 ]
b0000000000000011 ^
b0000000000000000 _
b0000000000000011 `
b0000000000001000 a
b0000000000000011 b
b0000001000000011 c
b0000000000000011 d
b0000000000000000 e
b00000011 f
b000 g
b0000011 h
b01000 i
b01000000011 j
b000011 k
b0000 l
b0010001000 m
b0011 n
b0010 o
b0000 p
b00000000000000000000000000000000000000000000000000000000000000000000000000 q
0t
1u
1v
0w
b000000000000000000000000000000000000000000000000000000000 x
0z
1{
b0000000000000000 |
b11111111111111111111111111111111 }
b00000000000000000000000000010000 ~
b00000000000000000000000000100000 "!
1""
b00000000000000000000000000001000 "#
b00000000000000000000000000000011 "$
b00000000000000000000000000000111 "%
b00000000000000000000000000000101 "&
b00000000000000000000000000001011 "'
b00000000000000000000000000000110 "(
b00000000000000000000000000000100 ")
b00000000000000000000000000001010 "*
b00000000000000000000000000000000 "+
b00000000000000000000000000000010 ",
b1101 "-
b1110 ".
b1100 "/
b00000000000000000000000001001010 "0
b00000000000000010000000000000000 "1
b00000000000000000000000000001111 "2
b00000000000000000000000000111001 "3
b00000000000000000000000010000000 "4
b00000000000000000000000001000000 "5
b00000000000000000000000000110111 "6
b00000000000000000000000000100001 "7
b00000000000000000000000000010101 "8
b00000000000000000000000000101101 "9
b00000000000000000000000000010011 ":
#2
0u
#3
b0000000000000011 E
b0010 F
b1100 G
b0000000000000011 H
b001 K
b0110 L
b0010 M
1O
1P
b0000000000000011 Z
b00101100000000000000001100000000000000000000010110001001100000000000000011 q
1u
b001011000000000000000011000000000000000000000101100010011 x
#4
0u
#5
1u
#6
0u
#7
1u
#8
0u
#9
1u
#10
0u
#11
0T
1u
0v
1w
0{
b0000000000000001 |
#12
0u
#13
b0100011000010110 #
b00000000000000010100011000010110 <
b0000000000000001 U
b0000000000000010 V
1Y
1u
b0000000000000010 |
#14
0u
#15
b0001110111010100 #
b00 $
b111 &
b0000000000010110 '
b0000000000010110 )
b0000000000011000 *
b0000000000010110 +
b1111111000010110 ,
b0000000000010110 -
b0000000000000010 .
b0110 0
b0000000000000010 2
b0000000000000001 3
b0000 6
b0110 7
0:
b0000000000010110 ;
b00000000000000100001110111010100 <
b1000001000000111110 =
b0110 >
b0000000000000010 @
b01101100000000000000001000000000000000010000010000011001000000000000010110 B
b0000000000000010 U
b0000000000000011 V
b0000000000000001 W
b0100011000010110 X
1[
b00000000000000010100011000010110 ]
b0000000000010110 ^
b0000000000010110 `
b0000000000011000 a
b0000000000010110 b
b1111111000010110 c
b0000000000010110 d
b0000000000000010 e
b00010110 f
b0010110 h
b11000 i
b11000010110 j
b010110 k
b0010 l
b0100011000 m
b0110 n
b0110 o
b0010 p
1u
1z
b0000000000000011 |
#16
0u
#17
b0001100110100011 #
b00 %
b001 &
b0000000011010100 '
b0000000000000111 (
b0000000001010100 )
b0000000000010111 *
b1111111111010100 +
b1111110111010100 ,
b0000000000010100 -
b0000000000001010 .
b0100 0
b0010 1
b0000000000000111 2
b0000000000000010 3
b1111 6
b1101 7
1:
b1111111111010100 ;
b00000000000000110001100110100011 <
b1000001111100000011 =
b0100 >
b0010 ?
b0000000000000111 @
b01000010000000000000011100000000000000100000011111110101101111111111010100 B
b0000000000010111 E
b0110 F
b0000000000000010 H
b0000000000000001 I
b0000 L
b0110 M
0P
b0000000000000011 U
b0000000000000100 V
b0000000000000010 W
b0001110111010100 X
b0000000000010110 Z
b00000000000000100001110111010100 ]
b0000000011010100 ^
b0000000000000111 _
b0000000001010100 `
b0000000000010111 a
b1111111111010100 b
b1111110111010100 c
b0000000000010100 d
b0000000000001010 e
b11010100 f
b111 g
b1010100 h
b10111 i
b10111010100 j
b010100 k
b1010 l
b0001110111 m
b0100 n
b0101 o
b01101100000000000000001000000000000000010000010000011001000000000000010110 q
1u
b011011000000000000000010000000000000000100000100000110010 x
b0000000000000100 |
#18
0u
#19
b0001101010110000 #
b0000000010100011 '
b0000000000000110 (
b0000000000100011 )
b0000000000000110 *
b1111111110100011 +
b0000000110100011 ,
b1111111111100011 -
b0000000000000100 .
b0011 0
b0100 1
b0000000000000110 2
b0000000000000011 3
b1001 7
0:
b1111111110100011 ;
b00000000000001000001101010110000 <
b1000001111100000010 =
b0011 >
b0100 ?
b0000000000000110 @
b00110100000000000000011000000000000000110000011111100101001111111110100011 B
b1111111111010110 E
b0100 F
b0010 G
b0000000000000111 H
b0000000000000010 I
b1111 L
b1101 M
1P
b0000000000000100 U
b0000000000000101 V
b0000000000000011 W
b0001100110100011 X
b1111111111010100 Z
b00000000000000110001100110100011 ]
b0000000010100011 ^
b0000000000000110 _
b0000000000100011 `
b0000000000000110 a
b1111111110100011 b
b0000000110100011 c
b1111111111100011 d
b0000000000000100 e
b10100011 f
b110 g
b0100011 h
b00110 i
b00110100011 j
b100011 k
b0100 l
b0001100110 m
b0011 n
b0001 o
b0100 p
b01000010000000000000011100000000000000100000011111110101101111111111010100 q
1t
1u
b010000100000000000000111000000000000001000000111111101011 x
b0000000000000101 |
#20
0u
#21
b0001111000010001 #
b0000000010110000 '
b0000000000000010 (
b0000000000110000 )
b0000000000001010 *
b1111111110110000 +
b0000001010110000 ,
b1111111111110000 -
b0000000000000110 .
b0000 0
b0110 1
b0000000000000010 2
b0000000000000100 3
b001 4
b1010 7
b0000001010110000 ;
b00000000000001010001111000010001 <
b1001001111100000010 =
b0000 >
b0110 ?
b0000000000000010 @
b01 A
b00000110000000000000001000000000000001000010011111101001000000001010110000 B
b1111111110100110 E
b0011 F
b0100 G
b0000000000000110 H
b0000000000000011 I
b1001 M
0P
b0000000000000101 U
b0000000000000110 V
b0000000000000100 W
b0001101010110000 X
b1111111110100011 Z
b00000000000001000001101010110000 ]
b0000000010110000 ^
b0000000000000010 _
b0000000000110000 `
b0000000000001010 a
b1111111110110000 b
b0000001010110000 c
b1111111111110000 d
b0000000000000110 e
b10110000 f
b010 g
b0110000 h
b01010 i
b01010110000 j
b110000 k
b0110 l
b0001101010 m
b0000 n
b0010 o
b0110 p
b00110100000000000000011000000000000000110000011111100101001111111110100011 q
1u
b001101000000000000000110000000000000001100000111111001010 x
b0000000000000110 |
#22
0u
#23
b0100001010000100 #
b0000000000010001 '
b0000000000000000 (
b0000000000010001 )
b0000000000011000 *
b0000000000010001 +
b1111111000010001 ,
b0000000000010001 -
b0000000000000010 .
b0001 0
b0010 1
b0000000000000000 2
b0000000000000101 3
b1110 7
1:
b1111111000010001 ;
b00000000000001100100001010000100 <
b1001001111100000011 =
b0001 >
b0010 ?
b0000000000000000 @
b00010010000000000000000000000000000001010010011111111001101111111000010001 B
b0000001010110100 E
b0000 F
b0110 G
b0000000000000010 H
b0000000000000100 I
b001 J
b1010 M
b01 Q
b0000000000000110 U
b0000000000000111 V
b0000000000000101 W
b0001111000010001 X
b0000001010110000 Z
b00000000000001010001111000010001 ]
b0000000000010001 ^
b0000000000000000 _
b0000000000010001 `
b0000000000011000 a
b0000000000010001 b
b1111111000010001 c
b0000000000010001 d
b0000000000000010 e
b00010001 f
b000 g
b0010001 h
b11000 i
b11000010001 j
b010001 k
b0010 l
b0001111000 m
b0001 n
b0110 o
b0010 p
b00000110000000000000001000000000000001000010011111101001000000001010110000 q
0t
1u
b000001100000000000000010000000000000010000100111111010010 x
b0000000000000111 |
#24
0u
#25
b0100000000110010 #
b01 %
b111 &
b0000000010000100 '
b0000000000000010 (
b0000000000000100 )
b0000000000001010 *
b1111111110000100 +
b0000001010000100 ,
b0000000000000100 -
b0000000000000000 .
b0100 0
b0100 1
b0000000000000110 3
b0010 7
09
0:
b0000001010000100 ;
b00000000000001110100000000110010 <
b0001001111100011110 =
b0100 >
b0100 ?
b01000100000000000000000000000000000001100010011111001000000000001010000100 B
b1111111000010110 E
b0001 F
b0010 G
b0000000000000000 H
b0000000000000101 I
b1110 M
1P
b0000000000000111 U
b0000000000001000 V
b0000000000000110 W
b0100001010000100 X
b1111111000010001 Z
b00000000000001100100001010000100 ]
b0000000010000100 ^
b0000000000000010 _
b0000000000000100 `
b0000000000001010 a
b1111111110000100 b
b0000001010000100 c
b0000000000000100 d
b0000000000000000 e
b10000100 f
b010 g
b0000100 h
b01010 i
b01010000100 j
b000100 k
b0000 l
b0100001010 m
b0100 n
b0010 o
b0000 p
b00010010000000000000000000000000000001010010011111111001101111111000010001 q
1t
1u
b000100100000000000000000000000000000010100100111111110011 x
b0000000000001000 |
#26
0u
#27
b0100000001000100 #
b00 %
b000 &
b0000000000110010 '
b0000000000000000 (
b0000000000110010 )
b0000000000000000 *
b0000000000110010 +
b0000000000110010 ,
b1111111111110010 -
b0000000000000110 .
b0010 0
b0110 1
b0000000000110010 2
b0000000000000111 3
b000 4
b010 5
b0110 6
b0000 7
19
b0000000000110010 ;
b00000000000010000100000001000100 <
b1000010011000000000 =
b0010 >
b0110 ?
b0000000000110010 @
b00 A
b00100110000000000011001000000000000001110000100110000001000000000000110010 B
b0000001010001010 E
b0100 F
b0100 G
b0000000000000110 I
b0010 M
0O
0P
b0000000000001000 U
b0000000000001001 V
b0000000000000111 W
b0100000000110010 X
b0000001010000100 Z
b00000000000001110100000000110010 ]
b0000000000110010 ^
b0000000000000000 _
b0000000000110010 `
b0000000000000000 a
b0000000000110010 b
b0000000000110010 c
b1111111111110010 d
b0000000000000110 e
b00110010 f
b000 g
b0110010 h
b00000 i
b00000110010 j
b110010 k
b0110 l
b0100000000 m
b0010 n
b0000 o
b0110 p
b01000100000000000000000000000000000001100010011111001000000000001010000100 q
0t
1u
b010001000000000000000000000000000000011000100111110010000 x
b0000000000001001 |
#28
0u
#29
b0100001100011001 #
b0000000001000100 '
b0000000000000001 (
b0000000001000100 )
b0000000000000001 *
b0000000001000100 +
b0000000001000100 ,
b0000000000000100 -
b0000000000001000 .
b0100 0
b0000 1
b0000000001000100 2
b0000000000001000 3
b001 4
b0000000001000100 ;
b00000000000010010100001100011001 <
b1001010011000000000 =
b0100 >
b0000 ?
b0000000001000100 @
b01 A
b01000000000000000100010000000000000010000010100110000001000000000001000100 B
b0000000000111001 E
b0010 F
b0110 G
b0000000000110010 H
b0000000000000111 I
b000 J
b010 K
b0110 L
b0000 M
1O
b00 Q
b0000000000001001 U
b0000000000001010 V
b0000000000001000 W
b0100000001000100 X
b0000000000110010 Z
b00000000000010000100000001000100 ]
b0000000001000100 ^
b0000000000000001 _
b0000000001000100 `
b0000000000000001 a
b0000000001000100 b
b0000000001000100 c
b0000000000000100 d
b0000000000001000 e
b01000100 f
b001 g
b1000100 h
b00001 i
b00001000100 j
b000100 k
b1000 l
b0100000001 m
b0100 n
b0000 p
b00100110000000000011001000000000000001110000100110000001000000000000110010 q
1u
b001001100000000000110010000000000000011100001001100000010 x
b0000000000001010 |
#30
0u
#31
b0100001111000101 #
b0000000000011001 '
b0000000000000100 (
b0000000000011001 )
b0000000000001100 *
b0000000000011001 +
b0000001100011001 ,
b0000000000011001 -
b0000000000000011 .
b0001 0
b0011 1
b0000000000011001 2
b0000000000001001 3
b010 4
b0011 7
b0000000000011001 ;
b00000000000010100100001111000101 <
b1010010011000000000 =
b0001 >
b0011 ?
b0000000000011001 @
b10 A
b00010011000000000001100100000000000010010100100110001101000000000000011001 B
b0000000001001100 E
b0100 F
b0000 G
b0000000001000100 H
b0000000000001000 I
b001 J
b01 Q
b0000000000001010 U
b0000000000001011 V
b0000000000001001 W
b0100001100011001 X
b0000000001000100 Z
b00000000000010010100001100011001 ]
b0000000000011001 ^
b0000000000000100 _
b0000000000011001 `
b0000000000001100 a
b0000000000011001 b
b0000001100011001 c
b0000000000011001 d
b0000000000000011 e
b00011001 f
b100 g
b0011001 h
b01100 i
b01100011001 j
b011001 k
b0011 l
b0100001100 m
b0001 n
b0011 o
b0011 p
b01000000000000000100010000000000000010000010100110000001000000000001000100 q
1u
b010000000000000001000100000000000000100000101001100000010 x
b0000000000001011 |
#32
0u
#33
b0100000010101001 #
b0000000011000101 '
b0000000000000111 (
b0000000001000101 )
b0000000000001111 *
b1111111111000101 +
b0000001111000101 ,
b0000000000000101 -
b0000000000001000 .
b0101 0
b0000 1
b0000000011000101 2
b0000000000001010 3
b011 4
b0000000000001000 ;
b00000000000010110100000010101001 <
b1011010011000000000 =
b0101 >
b0000 ?
b0000000011000101 @
b11 A
b01010000000000001100010100000000000010100110100110001101000000000000001000 B
b0000000000100010 E
b0001 F
b0011 G
b0000000000011001 H
b0000000000001001 I
b010 J
b0011 M
b10 Q
b0000000000001011 U
b0000000000001100 V
b0000000000001010 W
b0100001111000101 X
b0000000000011001 Z
b00000000000010100100001111000101 ]
b0000000011000101 ^
b0000000000000111 _
b0000000001000101 `
b0000000000001111 a
b1111111111000101 b
b0000001111000101 c
b0000000000000101 d
b0000000000001000 e
b11000101 f
b111 g
b1000101 h
b01111 i
b01111000101 j
b000101 k
b1000 l
b0100001111 m
b0101 n
b0000 p
b00010011000000000001100100000000000010010100100110001101000000000000011001 q
1u
b000100110000000000011001000000000000100101001001100011010 x
b0000000000001100 |
#34
0u
#35
b0100000011110100 #
b0000000010101001 '
b0000000000000010 (
b0000000000101001 )
b0000000000000010 *
b1111111110101001 +
b0000000010101001 ,
b1111111111101001 -
b0000000000000101 .
b0001 0
b0101 1
b0000000010101001 2
b0000000000001011 3
b100 4
b1110 6
b0000 7
b1111111110101001 ;
b00000000000011000100000011110100 <
b1100010111000000000 =
b0001 >
b0101 ?
b0000000010101001 @
b00 A
b00010101000000001010100100000000000010111000101110000001001111111110101001 B
b0000000000010010 E
b0101 F
b0000 G
b0000000011000101 H
b0000000000001010 I
b011 J
b11 Q
b0000000000001100 U
b0000000000001101 V
b0000000000001011 W
b0100000010101001 X
b0000000000001000 Z
b00000000000010110100000010101001 ]
b0000000010101001 ^
b0000000000000010 _
b0000000000101001 `
b0000000000000010 a
b1111111110101001 b
b0000000010101001 c
b1111111111101001 d
b0000000000000101 e
b10101001 f
b010 g
b0101001 h
b00010 i
b00010101001 j
b101001 k
b0101 l
b0100000010 m
b0001 n
b0000 o
b0101 p
b01010000000000001100010100000000000010100110100110001101000000000000001000 q
1u
b010100000000000011000101000000000000101001101001100011010 x
b0000000000001101 |
#36
0u
#37
b0100000100011101 #
b0000000011110100 '
b0000000000000011 (
b0000000001110100 )
b0000000000000011 *
b1111111111110100 +
b0000000011110100 ,
b1111111111110100 -
b0000000000001110 .
b0100 0
b0110 1
b0000000011110100 2
b0000000000001100 3
b101 4
b0000000011110100 ;
b00000000000011010100000100011101 <
b1101010111000000000 =
b0100 >
b0110 ?
b0000000011110100 @
b01 A
b01000110000000001111010000000000000011001010101110000001000000000011110100 B
b1111111110110100 E
b0001 F
b0101 G
b0000000010101001 H
b0000000000001011 I
b100 J
b1110 L
b0000 M
b00 Q
b0000000000001101 U
b0000000000001110 V
b0000000000001100 W
b0100000011110100 X
b1111111110101001 Z
b00000000000011000100000011110100 ]
b0000000011110100 ^
b0000000000000011 _
b0000000001110100 `
b0000000000000011 a
b1111111111110100 b
b0000000011110100 c
b1111111111110100 d
b0000000000001110 e
b11110100 f
b011 g
b1110100 h
b00011 i
b00011110100 j
b110100 k
b1110 l
b0100000011 m
b0100 n
b0110 p
b00010101000000001010100100000000000010111000101110000001001111111110101001 q
1t
1u
b000101010000000010101001000000000000101110001011100000010 x
b0000000000001110 |
#38
0u
#39
b0100000110011101 #
b0000000000011101 '
b0000000000000100 (
b0000000000011101 )
b0000000000000100 *
b0000000000011101 +
b0000000100011101 ,
b0000000000011101 -
b0000000000000011 .
b0101 0
b0011 1
b0000000000011101 2
b0000000000001101 3
b110 4
b0001 7
b0000000000011101 ;
b00000000000011100100000110011101 <
b1110010111000000000 =
b0101 >
b0011 ?
b0000000000011101 @
b10 A
b01010011000000000001110100000000000011011100101110000101000000000000011101 B
b0000000100000000 E
b0100 F
b0110 G
b0000000011110100 H
b0000000000001100 I
b101 J
b01 Q
b0000000000001110 U
b0000000000001111 V
b0000000000001101 W
b0100000100011101 X
b0000000011110100 Z
b00000000000011010100000100011101 ]
b0000000000011101 ^
b0000000000000100 _
b0000000000011101 `
b0000000000000100 a
b0000000000011101 b
b0000000100011101 c
b0000000000011101 d
b0000000000000011 e
b00011101 f
b100 g
b0011101 h
b00100 i
b00100011101 j
b011101 k
b0011 l
b0100000100 m
b0101 n
b0001 o
b0011 p
b01000110000000001111010000000000000011001010101110000001000000000011110100 q
0t
1u
b010001100000000011110100000000000000110010101011100000010 x
b0000000000001111 |
#40
0u
#41
b0100000101011101 #
b0000000010011101 '
b0000000000000110 (
b0000000000000110 *
b1111111110011101 +
b0000000110011101 ,
b0000000010011101 2
b0000000000001110 3
b000 4
b110 5
b0000 6
b1111111110011101 ;
b00000000000011110100000101011101 <
b1000110000000000000 =
b0000000010011101 @
b00 A
b01010011000000001001110100000000000011100001100000000101001111111110011101 B
b0000000000101010 E
b0101 F
b0011 G
b0000000000011101 H
b0000000000001101 I
b110 J
b0001 M
b10 Q
b0000000000001111 U
b0000000000010000 V
b0000000000001110 W
b0100000110011101 X
b0000000000011101 Z
b00000000000011100100000110011101 ]
b0000000010011101 ^
b0000000000000110 _
b0000000000000110 a
b1111111110011101 b
b0000000110011101 c
b10011101 f
b110 g
b00110 i
b00110011101 j
b0100000110 m
b01010011000000000001110100000000000011011100101110000101000000000000011101 q
1u
b010100110000000000011101000000000000110111001011100001010 x
b0000000000010000 |
#42
0u
